module example/hello

go 1.19

replace example.com/greetings => ../greetings

require (
	example.com/greetings v0.0.0-00010101000000-000000000000
	rsc.io/quote v1.5.2
)

require (
	golang.org/x/example v0.0.0-20220412213650-2e68773dfca0
	golang.org/x/text v0.3.3 // indirect
	rsc.io/sampler v1.3.0 // indirect
)
